How I picked March Madness 2021 - James' Sports Report
…
Log_fit <- 
  Log_workflow %>% 
  fit(data = Log_train)

So now I want to set up my curve for this data and see it’s end result.

Evaluating My Results

Trainpredict <- Log_fit %>% predict(new_data = Log_train) %>%
  bind_cols(Log_train)

Trainpredict

## # A tibble: 38,653 x 12
##    .pred_class Season Team  Date       Opponent Outcome Rolling_Mean_Of~
##    <fct>       <chr>  <chr> <date>     <chr>    <fct>              <dbl>
##  1 L           2014-~ Abil~ 2014-11-19 Tulsa    L                  127. 
##  2 L           2014-~ Abil~ 2014-11-22 Duquesne L                  127. 
##  3 L           2014-~ Abil~ 2014-12-06 Houston  L                   92.5
##  4 L           2014-~ Abil~ 2014-12-17 Loyola ~ L                   93.7
##  5 W           2014-~ Abil~ 2014-12-22 South C~ W                   97.9
##  6 W           2014-~ Abil~ 2014-12-23 Arkansa~ W                   98.6
##  7 L           2014-~ Abil~ 2014-12-28 Grand C~ L                   96.4
##  8 W           2014-~ Abil~ 2015-01-04 Central~ W                   98.9
##  9 W           2014-~ Abil~ 2015-01-10 Nicholl~ W                  103. 
## 10 W           2014-~ Abil~ 2015-01-13 Northwe~ W                  104. 
## # ... with 38,643 more rows, and 5 more variables:
## #   Rolling_Mean_Defensive <dbl>, TeamSRS <dbl>,
## #   Opponent_Rolling_Offensive <dbl>, Opponent_Rolling_Mean_Defensive <dbl>,
## #   OpponentSRS <dbl>

Trainpredict <- Log_fit %>% predict(new_data = Log_train, type="prob") %>%
  bind_cols(Trainpredict)

Trainpredict

## # A tibble: 38,653 x 14
##    .pred_L .pred_W .pred_class Season Team  Date       Opponent Outcome
##      <dbl>   <dbl> <fct>       <chr>  <chr> <date>     <chr>    <fct>  
##  1  0.949   0.0512 L           2014-~ Abil~ 2014-11-19 Tulsa    L      
##  2  0.874   0.126  L           2014-~ Abil~ 2014-11-22 Duquesne L      
##  3  0.912   0.0883 L           2014-~ Abil~ 2014-12-06 Houston  L      
##  4  0.987   0.0127 L           2014-~ Abil~ 2014-12-17 Loyola ~ L      
##  5  0.110   0.890  W           2014-~ Abil~ 2014-12-22 South C~ W      
##  6  0.237   0.763  W           2014-~ Abil~ 2014-12-23 Arkansa~ W      
##  7  0.884   0.116  L           2014-~ Abil~ 2014-12-28 Grand C~ L      
##  8  0.0620  0.938  W           2014-~ Abil~ 2015-01-04 Central~ W      
##  9  0.232   0.768  W           2014-~ Abil~ 2015-01-10 Nicholl~ W      
## 10  0.467   0.533  W           2014-~ Abil~ 2015-01-13 Northwe~ W      
## # ... with 38,643 more rows, and 6 more variables:
## #   Rolling_Mean_Offensive <dbl>, Rolling_Mean_Defensive <dbl>, TeamSRS <dbl>,
## #   Opponent_Rolling_Offensive <dbl>, Opponent_Rolling_Mean_Defensive <dbl>,
## #   OpponentSRS <dbl>
…
roc_auc(Trainpredict, truth = Outcome, .pred_L)

## # A tibble: 1 x 3
##   .metric .estimator .estimate
##   <chr>   <chr>          <dbl>
## 1 roc_auc binary         0.998

Testpredict <- Log_fit %>% predict(new_data = Log_test) %>%
  bind_cols(Log_test)

Testpredict

## # A tibble: 9,663 x 12
##    .pred_class Season Team  Date       Opponent Outcome Rolling_Mean_Of~
##    <fct>       <chr>  <chr> <date>     <chr>    <fct>              <dbl>
##  1 L           2014-~ Abil~ 2014-11-29 UC-Rive~ L                   91.8
##  2 L           2014-~ Abil~ 2014-12-04 Sacrame~ W                   88.3
##  3 L           2014-~ Abil~ 2015-01-31 Lamar    L                   90.6
##  4 L           2014-~ Air ~ 2014-11-14 Army     L                  107. 
##  5 W           2014-~ Air ~ 2015-01-07 San Jos~ W                  102. 
##  6 L           2014-~ Air ~ 2015-01-14 New Mex~ L                  102. 
##  7 W           2014-~ Air ~ 2015-01-28 San Jos~ W                  101. 
##  8 W           2014-~ Akron 2014-12-13 Middle ~ L                  106. 
##  9 W           2014-~ Akron 2014-12-30 Marshall W                  105. 
## 10 W           2014-~ Akron 2015-01-27 Ball St~ W                  102. 
## # ... with 9,653 more rows, and 5 more variables: Rolling_Mean_Defensive <dbl>,
## #   TeamSRS <dbl>, Opponent_Rolling_Offensive <dbl>,
## #   Opponent_Rolling_Mean_Defensive <dbl>, OpponentSRS <dbl>

Testpredict <- Log_fit %>% predict(new_data = Log_test, type="prob") %>%
  bind_cols(Testpredict)

Testpredict

## # A tibble: 9,663 x 14
##    .pred_L .pred_W .pred_class Season Team  Date       Opponent Outcome
##      <dbl>   <dbl> <fct>       <chr>  <chr> <date>     <chr>    <fct>  
##  1  0.847   0.153  L           2014-~ Abil~ 2014-11-29 UC-Rive~ L      
##  2  0.945   0.0546 L           2014-~ Abil~ 2014-12-04 Sacrame~ W      
##  3  0.843   0.157  L           2014-~ Abil~ 2015-01-31 Lamar    L      
##  4  0.558   0.442  L           2014-~ Air ~ 2014-11-14 Army     L      
##  5  0.0692  0.931  W           2014-~ Air ~ 2015-01-07 San Jos~ W      
##  6  0.799   0.201  L           2014-~ Air ~ 2015-01-14 New Mex~ L      
##  7  0.0640  0.936  W           2014-~ Air ~ 2015-01-28 San Jos~ W      
##  8  0.212   0.788  W           2014-~ Akron 2014-12-13 Middle ~ L      
##  9  0.0284  0.972  W           2014-~ Akron 2014-12-30 Marshall W      
## 10  0.187   0.813  W           2014-~ Akron 2015-01-27 Ball St~ W      
## # ... with 9,653 more rows, and 6 more variables: Rolling_Mean_Offensive <dbl>,
## #   Rolling_Mean_Defensive <dbl>, TeamSRS <dbl>,
## #   Opponent_Rolling_Offensive <dbl>, Opponent_Rolling_Mean_Defensive <dbl>,
## #   OpponentSRS <dbl>
…
